{
  "EDITOR_STATE": {
    "allProjectFiles": {
      "bd56a98a-a6f4-4806-adc3-516864e0246f": {
        "id": "bd56a98a-a6f4-4806-adc3-516864e0246f",
        "parent": null,
        "name": "folder1",
        "type": "DIRECTORY",
        "isDirectory": true,
        "children": [
          "e369374d-8580-4e70-b69e-88193f914adf",
          "7e7aabdf-01a1-4ac5-a34b-4f3140fb3b06",
          "3021b404-d271-4dc2-9e74-a9c5d691ea22"
        ],
        "isRemovable": true,
        "filePath": "folder1"
      },
      "e369374d-8580-4e70-b69e-88193f914adf": {
        "id": "e369374d-8580-4e70-b69e-88193f914adf",
        "parent": "bd56a98a-a6f4-4806-adc3-516864e0246f",
        "name": "sample.js",
        "type": "JS_LAMBDA",
        "isDirectory": false,
        "children": [],
        "isRemovable": true,
        "filePath": "folder1/sample.js",
        "cursor": {
          "lineNumber": 2,
          "column": 5
        },
        "config": {
          "runtime": "nodejs10.x",
          "handler": "handler",
          "timeout": 60,
          "memory": 128,
          "layers": []
        },
        "triggers": []
      },
      "7e7aabdf-01a1-4ac5-a34b-4f3140fb3b06": {
        "id": "7e7aabdf-01a1-4ac5-a34b-4f3140fb3b06",
        "parent": "bd56a98a-a6f4-4806-adc3-516864e0246f",
        "name": "sub2 dir",
        "type": "DIRECTORY",
        "isDirectory": true,
        "children": [
          "9ab7242c-e95e-4f13-b712-d810e154ebc4"
        ],
        "isRemovable": true,
        "filePath": "folder1/sub2 dir"
      },
      "9ab7242c-e95e-4f13-b712-d810e154ebc4": {
        "id": "9ab7242c-e95e-4f13-b712-d810e154ebc4",
        "parent": "7e7aabdf-01a1-4ac5-a34b-4f3140fb3b06",
        "name": "thisisafile.js",
        "type": "JS_LAMBDA",
        "isDirectory": false,
        "children": [],
        "isRemovable": true,
        "filePath": "folder1/sub2 dir/thisisafile.js",
        "cursor": {
          "lineNumber": 3,
          "column": 49
        },
        "config": {
          "runtime": "nodejs12.x",
          "handler": "handler",
          "timeout": 60,
          "memory": 384,
          "layers": []
        },
        "triggers": []
      },
      "b83cbd5f-5584-4f78-aad6-f5a430f5b073": {
        "id": "b83cbd5f-5584-4f78-aad6-f5a430f5b073",
        "parent": null,
        "name": "sigma-trail-1576477645786.json",
        "type": "JSON_FILE",
        "isDirectory": false,
        "children": [],
        "isRemovable": true,
        "filePath": "sigma-trail-1576477645786.json"
      },
      "3021b404-d271-4dc2-9e74-a9c5d691ea22": {
        "id": "3021b404-d271-4dc2-9e74-a9c5d691ea22",
        "parent": "bd56a98a-a6f4-4806-adc3-516864e0246f",
        "name": "hiru307gcpsmoke.json",
        "type": "JSON_FILE",
        "isDirectory": false,
        "children": [],
        "isRemovable": true,
        "filePath": "folder1/hiru307gcpsmoke.json"
      },
      "b0ced72a-94bd-456a-a309-c3be5301c888": {
        "id": "b0ced72a-94bd-456a-a309-c3be5301c888",
        "parent": null,
        "name": "lambda.js",
        "type": "JS_LAMBDA",
        "isDirectory": false,
        "children": [],
        "isRemovable": true,
        "filePath": "lambda.js",
        "cursor": {
          "lineNumber": 2,
          "column": 23
        },
        "config": {
          "runtime": "nodejs10.x",
          "handler": "handler",
          "timeout": 60,
          "memory": 128,
          "layers": []
        },
        "triggers": []
      }
    },
    "openFiles": [
      "e369374d-8580-4e70-b69e-88193f914adf"
    ],
    "currentFileId": "e369374d-8580-4e70-b69e-88193f914adf",
    "resources": {},
    "customTemplate": {
      "dialect": null,
      "definitions": null
    },
    "envVariables": [
      {
        "lambdaId": "all",
        "varKey": "SIGMA_AWS_ACC_ID",
        "varValue": null,
        "shouldPersist": false,
        "displayOnly": false,
        "editable": false
      }
    ],
    "packageJSON": {
      "dependencies": {
        "jimp": {
          "name": "jimp",
          "version": "0.9.3",
          "dev": true,
          "language": "nodejs"
        }
      }
    }
  },
  "PROJECT_META": {
    "projectName": "0226_gitlab",
    "projectDescription": "",
    "projectVersion": "1.0.0",
    "projectRegion": "us-east-1",
    "platform": "AWS",
    "language": "nodejs",
    "platformRegions": {},
    "lastSave": 1582722241069
  },
  "VCS_STATE": {
    "provider": "GitLab",
    "repo": {
      "name": "0226_gitlab",
      "url": "https://gitlab.com/hirudinee/0226_gitlab"
    }
  }
}